{
  "project_info": {
    "project_number": "233856371900",
    "firebase_url": "https://alquicampo-38b24-default-rtdb.firebaseio.com",
    "project_id": "alquicampo-38b24",
    "storage_bucket": "alquicampo-38b24.appspot.com"
  },
  "client": [
    {
      "client_info": {
        "mobilesdk_app_id": "1:233856371900:android:0dcc1c563829881d0254b9",
        "android_client_info": {
          "package_name": "com.sadycr.alquicampo"
        }
      },
      "oauth_client": [
        {
          "client_id": "233856371900-uiugo5lq6co8ms9bdgd9rondagfj6t9c.apps.googleusercontent.com",
          "client_type": 1,
          "android_info": {
            "package_name": "com.sadycr.alquicampo",
            "certificate_hash": "a993f11381d10d321b27c211f927cd07c9c2045e"
          }
        },
        {
          "client_id": "233856371900-3pdd7utvvq68qghikk8313m2bbhf7t0b.apps.googleusercontent.com",
          "client_type": 3
        }
      ],
      "api_key": [
        {
          "current_key": "AIzaSyAc4BgHfTTfEhJB6IBy8_HpLL3nxPx-brQ"
        }
      ],
      "services": {
        "appinvite_service": {
          "other_platform_oauth_client": [
            {
              "client_id": "233856371900-3pdd7utvvq68qghikk8313m2bbhf7t0b.apps.googleusercontent.com",
              "client_type": 3
            }
          ]
        }
      }
    }
  ],
  "configuration_version": "1"
}